{
  "type": "service_account",
  "project_id": "driveapi-216619",
  "private_key_id": "9184b9e4ec820596df9a1710ef657b17ba91437e",
  "private_key": "-----BEGIN PRIVATE KEY-----\nMIIEvQIBADANBgkqhkiG9w0BAQEFAASCBKcwggSjAgEAAoIBAQC5FznNnnpOUD2W\n64u9pFdK1Jg9I00o8r0+FAxLwqgDNWBx5eg/TaVlDDWaOeLZ9kfFaiDd24NewKJJ\nv6/wu+MPcu2OsM2nxgDcZg73/bh8OXo2yiY0hOnvmdJumzR5rBG1/bDB6hI02qeX\ncPFk56Ljw/95shOTWVe85eIgS7RNmUcFB9IfvKO7fgaeqN/0ZLiSkuzCng/stsHT\n1jvnKLNOoatzMZNqI1g6AgtA8GNGsLXg2SsJZWgAvrA6yabdf1HxeVDUwEvVcrZh\nrHzCxoM6SH9Eex0d84ZDM+Ex29D4YQWppXx4HgiVT6LupHb+yfYIpbKMCNbRS5w/\nlArsQR99AgMBAAECggEADKJ7vsAHNepY643EgI6qRACGkrUJGUPJf3/YP25+kDC0\n45sfz/zWaGZXEGIymWtfU3Te4OL3sROlE5pP6DbplVsXwVC4MTA25dSnrlRCo2Q7\n2TQ41TpcSvYgPPTZguBbZlkQSr4JcSDN8oYL5gLAuU74IdzYl9hJwRDP1bslOzi4\nOp4kWuepniW9tO8y3udAVgVyh5vvTvG8FYFK9Qw7IQxHejy9rduKu5PdZoz2Yblh\ncHl8mngE8N6iqyTQVyEb1vIgffidbkJWHjuDKD3UcIagHipJ3Yd5Tqy7Np2SkGs9\nN2wj+ip4gGhq0NAOuaPoqGL62bBsRBJ8HKDJ7BcWRwKBgQD7rhWDt8YdZvQ4hdq9\nWXqfOfw2hO7ktpt1vRP5fNBHerJBKedZJUCjhtdSN1C7EKHeQnHqPtJvAhp7uJqs\nex/6KdmCYIE85fgUQ2zAt0WWgJRhBTuYNlJKiSr+QKaVHxisfXKDyfMyUhhe1wLZ\nBEPYyUxm0khxAvUFh+9Nh5jSjwKBgQC8RIoXu3TfXoDUUBDCj7bu8fQzT40o88VY\nnlhY0ObXBomOYzYIVgo4GE8railaCgVkHD3dXkoDKH70zZCXLHiRluIhwRLu7pOo\niOCOOpZ0BWOgFOQb3tCvv/vVpA32a5FxgZcYV3W1txSiEYbxcdaazSnJcPiB+jJv\nmr7mQfCDMwKBgG99pro65uCPgxCm+0d2JAP1Q+1C5jEbU7LMl9Slnf6MM/r5/SpY\nflHyoeAh8PltXMeA18XVHpNecyzrkllmEbxYXaqL5bR8i3EujTax+Xm6bACuuL+t\nELdEHG+VZDYbGGsRB3GqPLnF9FXPGcvZP9UBF39VGBI4JSLWHQRTVTexAoGBALNy\n1Pln+S9LgZpdMoxwtZotz2j1A4SsTkd4rpcBj3YXShgJIqBxek4bhaLJDt8+vAK/\nFIyi6gL2n4QxSAeAIPAMlEA+KxDJIL88sGWBHJU76cjVANQ73kgWwzDQrWpa/4fk\nUKOoAY+SET2lXS1YJ4jn01OptYUWeOp94kXRRjGXAoGAGoZ/lAUfm1JrPW8O/IdW\nsE175/pIDulX60wgFH1P9byCBbx/se1tGicu8rxri1aBSePJEF/6lhgHBBMyctM2\nVZv7ICT7Cz1ClwpCx2RI6c27VuDSR3Q28YzCXMYcE9C5pZpiVFAQ/aeq2VBDrfw4\nZZFdjOXQlYg/yHdCQMlHnbs=\n-----END PRIVATE KEY-----\n",
  "client_email": "drive-api@driveapi-216619.iam.gserviceaccount.com",
  "client_id": "116502631141713194265",
  "auth_uri": "https://accounts.google.com/o/oauth2/auth",
  "token_uri": "https://oauth2.googleapis.com/token",
  "auth_provider_x509_cert_url": "https://www.googleapis.com/oauth2/v1/certs",
  "client_x509_cert_url": "https://www.googleapis.com/robot/v1/metadata/x509/drive-api%40driveapi-216619.iam.gserviceaccount.com"
}
